<?xml version="1.0" encoding="utf-8"?>
<!-- Generator: Adobe Illustrator 22.1.0, SVG Export Plug-In . SVG Version: 6.00 Build 0)  -->
<svg version="1.1" xmlns="http://www.w3.org/2000/svg" xmlns:xlink="http://www.w3.org/1999/xlink" x="0px" y="0px"
	 viewBox="0 0 24 24" style="enable-background:new 0 0 24 24;" xml:space="preserve">
<path d="M15,18.4v0.2c0,0.9-0.8,1.6-1.7,1.6H5.8c-0.9,0-1.7-0.7-1.7-1.6V5.5c0-0.9,0.8-1.6,1.7-1.6h7.6c0.9,0,1.7,0.7,1.7,1.6v2h1.8
	V5.3c0-1.8-1.5-3.3-3.4-3.3H5.7C3.8,2,2.3,3.5,2.3,5.3v13.3c0,1.8,1.5,3.3,3.4,3.3h7.7c1.9,0,3.4-1.5,3.4-3.3v-2.1H15V18.4z"/>
<polygon points="18.4,8.6 17.1,9.9 18.3,11.1 10.4,11.1 10.4,12.9 18.3,12.9 17.1,14.1 18.4,15.4 21.7,12 "/>
</svg>
