<?xml version="1.0" encoding="utf-8"?>
<!-- Generator: Adobe Illustrator 22.1.0, SVG Export Plug-In . SVG Version: 6.00 Build 0)  -->
<svg version="1.1" xmlns="http://www.w3.org/2000/svg" xmlns:xlink="http://www.w3.org/1999/xlink" x="0px" y="0px"
	 viewBox="0 0 24 24" style="enable-background:new 0 0 24 24;" xml:space="preserve">
<path d="M15,8v2h5V5h-2v1l-0.4,0.4C16.2,4.9,14.2,4,12,4c-4.4,0-8,3.6-8,8s3.6,8,8,8c4.1,0,7.4-3.1,7.9-7h-2c-0.5,2.8-2.9,5-5.9,5
	c-3.3,0-6-2.7-6-6s2.7-6,6-6c1.7,0,3.2,0.7,4.2,1.8L16,8H15z"/>
</svg>
