<?xml version="1.0" encoding="utf-8"?>
<!-- Generator: Adobe Illustrator 22.1.0, SVG Export Plug-In . SVG Version: 6.00 Build 0)  -->
<svg version="1.1" xmlns="http://www.w3.org/2000/svg" xmlns:xlink="http://www.w3.org/1999/xlink" x="0px" y="0px"
	 viewBox="0 0 24 24" style="enable-background:new 0 0 24 24;" xml:space="preserve">
<path d="M20.7,3.3L2.9,10.2c-1.2,0.5-1.2,1.2-0.2,1.5l4.5,1.4l10.5-6.7c0.5-0.3,0.9-0.1,0.6,0.2l-8.5,7.8l-1.6,5.1
	c1.3-0.4,2-0.7,2.2-0.8l2.2-2.2l4.6,3.4c0.8,0.5,1.4,0.2,1.7-0.8l3-14.4C22.2,3.5,21.5,3,20.7,3.3z"/>
</svg>
